{

    "file_columns" : {"data_file_drop_cols" : ["unit","geo_std","n_events_removed","n_events","n_events_outofrange"],
                      "data_file_keep_cols" : [],
                      "meta_file_drop_cols" : [],
                      "meta_file_keep_cols" : ["sample_id","control_type","media_type","timepoint","temperature","strain_circuit","strain_input_state","cells/mL"],
                      "join_on" : "sample_id"
                  },

    "transformations" : {
        "log10" : ["geo_mean"]
    },

     "filtering_criteria" : {
            "n_events_used" : [2000, "gteq"],
            "channel" : ["BL1-A","eq"]
         },

    "control_params" : { "pos": "HIGH_FITC","neg" : "EMPTY_VECTOR","control_col" : "control_type","circuit_col" : "strain_circuit", "geo_mean_col" : "geo_mean", "geo_mean_log10" : true },

    "circuit_params" : {
      "input_states" : ["00","01","10","11"],
      "input_col" : "strain_input_state",
      "group_cols" : ["strain_circuit","media_type","timepoint","temperature"]
      }
}
