{

    "file_columns" : {"data_file_drop_cols" : ["experiment_id","aliquot_id","std_log10","bin(log10)_NAN"],
                      "data_file_keep_cols" : [],
                      "meta_file_drop_cols" : [],
                      "meta_file_keep_cols" : ["sample_id","strain","media_type","timepoint","temperature","total_counts","strain_circuit","strain_input_state","cells/mL","beta-estradiol","doxycycline-hyclate","pON/pOFF"],
                      "join_on" : "sample_id"
                  },

    "transformations" : {
    },

     "filtering_criteria" : {
            "total_counts" : [10000, "gteq"],
            "channel" : ["BL1-H","eq"],
            "cells/mL" : [750000, "gteq"],
            "beta-estradiol" : [[0,0.0002], "in_list"],
            "doxycycline-hyclate" : [[0,0.00006], "in_list"]
         },

    "control_params" : { "pos": "UWBF_24864","neg" : "UWBF_23970","control_col" : "strain","circuit_col" : "strain_circuit", "geo_mean_col" : "mean_log10", "geo_mean_log10" : true },

    "circuit_params" : {
      "input_states" : ["00","01","10","11"],
      "input_col" : "strain_input_state",
      "group_cols" : ["strain","strain_circuit","media_type","timepoint","temperature"]
      }
}