{

    "file_columns" : {"data_file_drop_cols" : ["experiment_id","aliquot_id","std_log10"],
                      "data_file_keep_cols" : [],
                      "meta_file_drop_cols" : [],
                      "meta_file_keep_cols" : ["sample_id","control_type","media_type","timepoint","temperature","total_counts","strain_circuit","strain_input_state"],
                      "join_on" : "sample_id"
                  },

    "transformations" : {
    },

     "filtering_criteria" : {
            "total_counts" : [10000, "gteq"],
            "channel" : ["BL1-H","eq"],
            "cells/mL" : [1000000, "gteq"]
         },

    "control_params" : { "pos": "HIGH_FITC","neg" : "EMPTY_VECTOR","control_col" : "control_type","circuit_col" : "strain_circuit", "geo_mean_col" : "mean_log10", "geo_mean_log10" : true },

    "circuit_params" : {
      "input_states" : ["00","01","10","11"],
      "input_col" : "strain_input_state",
      "group_cols" : ["strain_circuit","media_type","timepoint","temperature"]
      }
}